^C:\USERS\NARIB\DESKTOP\COURS PROGRAMMATION\PROGRAMMATION ORIENTEE OBJET\EXERCICES\TP\SPACEINVADOR2\COORD.CPP|C:\USERS\NARIB\DESKTOP\COURS PROGRAMMATION\PROGRAMMATION ORIENTEE OBJET\EXERCICES\TP\SPACEINVADOR2\EXTRATERRESTRE.CPP|C:\USERS\NARIB\DESKTOP\COURS PROGRAMMATION\PROGRAMMATION ORIENTEE OBJET\EXERCICES\TP\SPACEINVADOR2\LASER.CPP|C:\USERS\NARIB\DESKTOP\COURS PROGRAMMATION\PROGRAMMATION ORIENTEE OBJET\EXERCICES\TP\SPACEINVADOR2\MAIN.CPP|C:\USERS\NARIB\DESKTOP\COURS PROGRAMMATION\PROGRAMMATION ORIENTEE OBJET\EXERCICES\TP\SPACEINVADOR2\MARTIEN.CPP|C:\USERS\NARIB\DESKTOP\COURS PROGRAMMATION\PROGRAMMATION ORIENTEE OBJET\EXERCICES\TP\SPACEINVADOR2\UIKIT.CPP|C:\USERS\NARIB\DESKTOP\COURS PROGRAMMATION\PROGRAMMATION ORIENTEE OBJET\EXERCICES\TP\SPACEINVADOR2\VAISSEAU.CPP
C:\USERS\NARIB\DESKTOP\COURS PROGRAMMATION\PROGRAMMATION ORIENTEE OBJET\EXERCICES\TP\SPACEINVADOR2\DEBUG\VC141.PDB
C:\USERS\NARIB\DESKTOP\COURS PROGRAMMATION\PROGRAMMATION ORIENTEE OBJET\EXERCICES\TP\SPACEINVADOR2\DEBUG\VC141.IDB
C:\USERS\NARIB\DESKTOP\COURS PROGRAMMATION\PROGRAMMATION ORIENTEE OBJET\EXERCICES\TP\SPACEINVADOR2\DEBUG\VAISSEAU.OBJ
C:\USERS\NARIB\DESKTOP\COURS PROGRAMMATION\PROGRAMMATION ORIENTEE OBJET\EXERCICES\TP\SPACEINVADOR2\DEBUG\UIKIT.OBJ
C:\USERS\NARIB\DESKTOP\COURS PROGRAMMATION\PROGRAMMATION ORIENTEE OBJET\EXERCICES\TP\SPACEINVADOR2\DEBUG\MAIN.OBJ
C:\USERS\NARIB\DESKTOP\COURS PROGRAMMATION\PROGRAMMATION ORIENTEE OBJET\EXERCICES\TP\SPACEINVADOR2\DEBUG\MARTIEN.OBJ
C:\USERS\NARIB\DESKTOP\COURS PROGRAMMATION\PROGRAMMATION ORIENTEE OBJET\EXERCICES\TP\SPACEINVADOR2\DEBUG\LASER.OBJ
C:\USERS\NARIB\DESKTOP\COURS PROGRAMMATION\PROGRAMMATION ORIENTEE OBJET\EXERCICES\TP\SPACEINVADOR2\DEBUG\EXTRATERRESTRE.OBJ
C:\USERS\NARIB\DESKTOP\COURS PROGRAMMATION\PROGRAMMATION ORIENTEE OBJET\EXERCICES\TP\SPACEINVADOR2\DEBUG\COORD.OBJ
^C:\USERS\NARIB\DESKTOP\COURS PROGRAMMATION\PROGRAMMATION ORIENTEE OBJET\EXERCICES\TP\SPACEINVADOR2\COORD.CPP
C:\USERS\NARIB\DESKTOP\COURS PROGRAMMATION\PROGRAMMATION ORIENTEE OBJET\EXERCICES\TP\SPACEINVADOR2\DEBUG\VC141.PDB
^C:\USERS\NARIB\DESKTOP\COURS PROGRAMMATION\PROGRAMMATION ORIENTEE OBJET\EXERCICES\TP\SPACEINVADOR2\UIKIT.CPP
C:\USERS\NARIB\DESKTOP\COURS PROGRAMMATION\PROGRAMMATION ORIENTEE OBJET\EXERCICES\TP\SPACEINVADOR2\DEBUG\VC141.PDB
^C:\USERS\NARIB\DESKTOP\COURS PROGRAMMATION\PROGRAMMATION ORIENTEE OBJET\EXERCICES\TP\SPACEINVADOR2\MAIN.CPP|C:\USERS\NARIB\DESKTOP\COURS PROGRAMMATION\PROGRAMMATION ORIENTEE OBJET\EXERCICES\TP\SPACEINVADOR2\MARTIEN.CPP
C:\USERS\NARIB\DESKTOP\COURS PROGRAMMATION\PROGRAMMATION ORIENTEE OBJET\EXERCICES\TP\SPACEINVADOR2\DEBUG\VC141.PDB
C:\USERS\NARIB\DESKTOP\COURS PROGRAMMATION\PROGRAMMATION ORIENTEE OBJET\EXERCICES\TP\SPACEINVADOR2\DEBUG\VC141.IDB
C:\USERS\NARIB\DESKTOP\COURS PROGRAMMATION\PROGRAMMATION ORIENTEE OBJET\EXERCICES\TP\SPACEINVADOR2\DEBUG\MAIN.OBJ
^C:\USERS\NARIB\DESKTOP\COURS PROGRAMMATION\PROGRAMMATION ORIENTEE OBJET\EXERCICES\TP\SPACEINVADOR2\EXTRATERRESTRE.CPP|C:\USERS\NARIB\DESKTOP\COURS PROGRAMMATION\PROGRAMMATION ORIENTEE OBJET\EXERCICES\TP\SPACEINVADOR2\MAIN.CPP|C:\USERS\NARIB\DESKTOP\COURS PROGRAMMATION\PROGRAMMATION ORIENTEE OBJET\EXERCICES\TP\SPACEINVADOR2\MARTIEN.CPP
C:\USERS\NARIB\DESKTOP\COURS PROGRAMMATION\PROGRAMMATION ORIENTEE OBJET\EXERCICES\TP\SPACEINVADOR2\DEBUG\VC141.PDB
C:\USERS\NARIB\DESKTOP\COURS PROGRAMMATION\PROGRAMMATION ORIENTEE OBJET\EXERCICES\TP\SPACEINVADOR2\DEBUG\VC141.IDB
C:\USERS\NARIB\DESKTOP\COURS PROGRAMMATION\PROGRAMMATION ORIENTEE OBJET\EXERCICES\TP\SPACEINVADOR2\DEBUG\MAIN.OBJ
C:\USERS\NARIB\DESKTOP\COURS PROGRAMMATION\PROGRAMMATION ORIENTEE OBJET\EXERCICES\TP\SPACEINVADOR2\DEBUG\MARTIEN.OBJ
C:\USERS\NARIB\DESKTOP\COURS PROGRAMMATION\PROGRAMMATION ORIENTEE OBJET\EXERCICES\TP\SPACEINVADOR2\DEBUG\EXTRATERRESTRE.OBJ
^C:\USERS\NARIB\DESKTOP\COURS PROGRAMMATION\PROGRAMMATION ORIENTEE OBJET\EXERCICES\TP\SPACEINVADOR2\LASER.CPP|C:\USERS\NARIB\DESKTOP\COURS PROGRAMMATION\PROGRAMMATION ORIENTEE OBJET\EXERCICES\TP\SPACEINVADOR2\MAIN.CPP
C:\USERS\NARIB\DESKTOP\COURS PROGRAMMATION\PROGRAMMATION ORIENTEE OBJET\EXERCICES\TP\SPACEINVADOR2\DEBUG\VC141.PDB
C:\USERS\NARIB\DESKTOP\COURS PROGRAMMATION\PROGRAMMATION ORIENTEE OBJET\EXERCICES\TP\SPACEINVADOR2\DEBUG\VC141.IDB
C:\USERS\NARIB\DESKTOP\COURS PROGRAMMATION\PROGRAMMATION ORIENTEE OBJET\EXERCICES\TP\SPACEINVADOR2\DEBUG\MAIN.OBJ
C:\USERS\NARIB\DESKTOP\COURS PROGRAMMATION\PROGRAMMATION ORIENTEE OBJET\EXERCICES\TP\SPACEINVADOR2\DEBUG\LASER.OBJ
^C:\USERS\NARIB\DESKTOP\COURS PROGRAMMATION\PROGRAMMATION ORIENTEE OBJET\EXERCICES\TP\SPACEINVADOR2\EXTRATERRESTRE.CPP|C:\USERS\NARIB\DESKTOP\COURS PROGRAMMATION\PROGRAMMATION ORIENTEE OBJET\EXERCICES\TP\SPACEINVADOR2\MAIN.CPP
C:\USERS\NARIB\DESKTOP\COURS PROGRAMMATION\PROGRAMMATION ORIENTEE OBJET\EXERCICES\TP\SPACEINVADOR2\DEBUG\VC141.PDB
C:\USERS\NARIB\DESKTOP\COURS PROGRAMMATION\PROGRAMMATION ORIENTEE OBJET\EXERCICES\TP\SPACEINVADOR2\DEBUG\VC141.IDB
C:\USERS\NARIB\DESKTOP\COURS PROGRAMMATION\PROGRAMMATION ORIENTEE OBJET\EXERCICES\TP\SPACEINVADOR2\DEBUG\MAIN.OBJ
C:\USERS\NARIB\DESKTOP\COURS PROGRAMMATION\PROGRAMMATION ORIENTEE OBJET\EXERCICES\TP\SPACEINVADOR2\DEBUG\EXTRATERRESTRE.OBJ
^C:\USERS\NARIB\DESKTOP\COURS PROGRAMMATION\PROGRAMMATION ORIENTEE OBJET\EXERCICES\TP\SPACEINVADOR2\EXTRATERRESTRE.CPP
C:\USERS\NARIB\DESKTOP\COURS PROGRAMMATION\PROGRAMMATION ORIENTEE OBJET\EXERCICES\TP\SPACEINVADOR2\DEBUG\VC141.PDB
^C:\USERS\NARIB\DESKTOP\COURS PROGRAMMATION\PROGRAMMATION ORIENTEE OBJET\EXERCICES\TP\SPACEINVADOR2\LASER.CPP|C:\USERS\NARIB\DESKTOP\COURS PROGRAMMATION\PROGRAMMATION ORIENTEE OBJET\EXERCICES\TP\SPACEINVADOR2\MAIN.CPP|C:\USERS\NARIB\DESKTOP\COURS PROGRAMMATION\PROGRAMMATION ORIENTEE OBJET\EXERCICES\TP\SPACEINVADOR2\TIRE.CPP
C:\USERS\NARIB\DESKTOP\COURS PROGRAMMATION\PROGRAMMATION ORIENTEE OBJET\EXERCICES\TP\SPACEINVADOR2\DEBUG\VC141.PDB
C:\USERS\NARIB\DESKTOP\COURS PROGRAMMATION\PROGRAMMATION ORIENTEE OBJET\EXERCICES\TP\SPACEINVADOR2\DEBUG\VC141.IDB
C:\USERS\NARIB\DESKTOP\COURS PROGRAMMATION\PROGRAMMATION ORIENTEE OBJET\EXERCICES\TP\SPACEINVADOR2\DEBUG\TIRE.OBJ
C:\USERS\NARIB\DESKTOP\COURS PROGRAMMATION\PROGRAMMATION ORIENTEE OBJET\EXERCICES\TP\SPACEINVADOR2\DEBUG\MAIN.OBJ
C:\USERS\NARIB\DESKTOP\COURS PROGRAMMATION\PROGRAMMATION ORIENTEE OBJET\EXERCICES\TP\SPACEINVADOR2\DEBUG\LASER.OBJ
^C:\USERS\NARIB\DESKTOP\COURS PROGRAMMATION\PROGRAMMATION ORIENTEE OBJET\EXERCICES\TP\SPACEINVADOR2\LASER.CPP
C:\USERS\NARIB\DESKTOP\COURS PROGRAMMATION\PROGRAMMATION ORIENTEE OBJET\EXERCICES\TP\SPACEINVADOR2\DEBUG\VC141.PDB
^C:\USERS\NARIB\DESKTOP\COURS PROGRAMMATION\PROGRAMMATION ORIENTEE OBJET\EXERCICES\TP\SPACEINVADOR2\ALIEN.CPP|C:\USERS\NARIB\DESKTOP\COURS PROGRAMMATION\PROGRAMMATION ORIENTEE OBJET\EXERCICES\TP\SPACEINVADOR2\MAIN.CPP|C:\USERS\NARIB\DESKTOP\COURS PROGRAMMATION\PROGRAMMATION ORIENTEE OBJET\EXERCICES\TP\SPACEINVADOR2\MARTIEN.CPP|C:\USERS\NARIB\DESKTOP\COURS PROGRAMMATION\PROGRAMMATION ORIENTEE OBJET\EXERCICES\TP\SPACEINVADOR2\TIRE.CPP
C:\USERS\NARIB\DESKTOP\COURS PROGRAMMATION\PROGRAMMATION ORIENTEE OBJET\EXERCICES\TP\SPACEINVADOR2\DEBUG\VC141.PDB
C:\USERS\NARIB\DESKTOP\COURS PROGRAMMATION\PROGRAMMATION ORIENTEE OBJET\EXERCICES\TP\SPACEINVADOR2\DEBUG\VC141.IDB
C:\USERS\NARIB\DESKTOP\COURS PROGRAMMATION\PROGRAMMATION ORIENTEE OBJET\EXERCICES\TP\SPACEINVADOR2\DEBUG\TIRE.OBJ
C:\USERS\NARIB\DESKTOP\COURS PROGRAMMATION\PROGRAMMATION ORIENTEE OBJET\EXERCICES\TP\SPACEINVADOR2\DEBUG\MARTIEN.OBJ
C:\USERS\NARIB\DESKTOP\COURS PROGRAMMATION\PROGRAMMATION ORIENTEE OBJET\EXERCICES\TP\SPACEINVADOR2\DEBUG\ALIEN.OBJ
^C:\USERS\NARIB\DESKTOP\COURS PROGRAMMATION\PROGRAMMATION ORIENTEE OBJET\EXERCICES\TP\SPACEINVADOR2\MARTIEN.CPP
C:\USERS\NARIB\DESKTOP\COURS PROGRAMMATION\PROGRAMMATION ORIENTEE OBJET\EXERCICES\TP\SPACEINVADOR2\DEBUG\MARTIEN.OBJ
^C:\USERS\NARIB\DESKTOP\COURS PROGRAMMATION\PROGRAMMATION ORIENTEE OBJET\EXERCICES\TP\SPACEINVADOR2\ALIEN.CPP|C:\USERS\NARIB\DESKTOP\COURS PROGRAMMATION\PROGRAMMATION ORIENTEE OBJET\EXERCICES\TP\SPACEINVADOR2\MAIN.CPP|C:\USERS\NARIB\DESKTOP\COURS PROGRAMMATION\PROGRAMMATION ORIENTEE OBJET\EXERCICES\TP\SPACEINVADOR2\TIRE.CPP
C:\USERS\NARIB\DESKTOP\COURS PROGRAMMATION\PROGRAMMATION ORIENTEE OBJET\EXERCICES\TP\SPACEINVADOR2\DEBUG\VC141.PDB
C:\USERS\NARIB\DESKTOP\COURS PROGRAMMATION\PROGRAMMATION ORIENTEE OBJET\EXERCICES\TP\SPACEINVADOR2\DEBUG\VC141.IDB
C:\USERS\NARIB\DESKTOP\COURS PROGRAMMATION\PROGRAMMATION ORIENTEE OBJET\EXERCICES\TP\SPACEINVADOR2\DEBUG\MAIN.OBJ
C:\USERS\NARIB\DESKTOP\COURS PROGRAMMATION\PROGRAMMATION ORIENTEE OBJET\EXERCICES\TP\SPACEINVADOR2\DEBUG\TIRE.OBJ
C:\USERS\NARIB\DESKTOP\COURS PROGRAMMATION\PROGRAMMATION ORIENTEE OBJET\EXERCICES\TP\SPACEINVADOR2\DEBUG\ALIEN.OBJ
^C:\USERS\NARIB\DESKTOP\COURS PROGRAMMATION\PROGRAMMATION ORIENTEE OBJET\EXERCICES\TP\SPACEINVADOR2\ALIEN.CPP|C:\USERS\NARIB\DESKTOP\COURS PROGRAMMATION\PROGRAMMATION ORIENTEE OBJET\EXERCICES\TP\SPACEINVADOR2\TIRE.CPP
C:\USERS\NARIB\DESKTOP\COURS PROGRAMMATION\PROGRAMMATION ORIENTEE OBJET\EXERCICES\TP\SPACEINVADOR2\DEBUG\VC141.PDB
C:\USERS\NARIB\DESKTOP\COURS PROGRAMMATION\PROGRAMMATION ORIENTEE OBJET\EXERCICES\TP\SPACEINVADOR2\DEBUG\VC141.IDB
C:\USERS\NARIB\DESKTOP\COURS PROGRAMMATION\PROGRAMMATION ORIENTEE OBJET\EXERCICES\TP\SPACEINVADOR2\DEBUG\TIRE.OBJ
C:\USERS\NARIB\DESKTOP\COURS PROGRAMMATION\PROGRAMMATION ORIENTEE OBJET\EXERCICES\TP\SPACEINVADOR2\DEBUG\ALIEN.OBJ
^C:\USERS\NARIB\DESKTOP\COURS PROGRAMMATION\PROGRAMMATION ORIENTEE OBJET\EXERCICES\TP\SPACEINVADOR2\ALIEN.CPP|C:\USERS\NARIB\DESKTOP\COURS PROGRAMMATION\PROGRAMMATION ORIENTEE OBJET\EXERCICES\TP\SPACEINVADOR2\MAIN.CPP
C:\USERS\NARIB\DESKTOP\COURS PROGRAMMATION\PROGRAMMATION ORIENTEE OBJET\EXERCICES\TP\SPACEINVADOR2\DEBUG\VC141.PDB
C:\USERS\NARIB\DESKTOP\COURS PROGRAMMATION\PROGRAMMATION ORIENTEE OBJET\EXERCICES\TP\SPACEINVADOR2\DEBUG\VC141.IDB
C:\USERS\NARIB\DESKTOP\COURS PROGRAMMATION\PROGRAMMATION ORIENTEE OBJET\EXERCICES\TP\SPACEINVADOR2\DEBUG\MAIN.OBJ
C:\USERS\NARIB\DESKTOP\COURS PROGRAMMATION\PROGRAMMATION ORIENTEE OBJET\EXERCICES\TP\SPACEINVADOR2\DEBUG\ALIEN.OBJ
^C:\USERS\NARIB\DESKTOP\COURS PROGRAMMATION\PROGRAMMATION ORIENTEE OBJET\EXERCICES\TP\SPACEINVADOR2\ALIEN.CPP|C:\USERS\NARIB\DESKTOP\COURS PROGRAMMATION\PROGRAMMATION ORIENTEE OBJET\EXERCICES\TP\SPACEINVADOR2\MAIN.CPP|C:\USERS\NARIB\DESKTOP\COURS PROGRAMMATION\PROGRAMMATION ORIENTEE OBJET\EXERCICES\TP\SPACEINVADOR2\PLAYER.CPP
C:\USERS\NARIB\DESKTOP\COURS PROGRAMMATION\PROGRAMMATION ORIENTEE OBJET\EXERCICES\TP\SPACEINVADOR2\DEBUG\VC141.PDB
C:\USERS\NARIB\DESKTOP\COURS PROGRAMMATION\PROGRAMMATION ORIENTEE OBJET\EXERCICES\TP\SPACEINVADOR2\DEBUG\VC141.IDB
C:\USERS\NARIB\DESKTOP\COURS PROGRAMMATION\PROGRAMMATION ORIENTEE OBJET\EXERCICES\TP\SPACEINVADOR2\DEBUG\PLAYER.OBJ
C:\USERS\NARIB\DESKTOP\COURS PROGRAMMATION\PROGRAMMATION ORIENTEE OBJET\EXERCICES\TP\SPACEINVADOR2\DEBUG\MAIN.OBJ
C:\USERS\NARIB\DESKTOP\COURS PROGRAMMATION\PROGRAMMATION ORIENTEE OBJET\EXERCICES\TP\SPACEINVADOR2\DEBUG\ALIEN.OBJ
^C:\USERS\NARIB\DESKTOP\COURS PROGRAMMATION\PROGRAMMATION ORIENTEE OBJET\EXERCICES\TP\SPACEINVADOR2\MAIN.CPP|C:\USERS\NARIB\DESKTOP\COURS PROGRAMMATION\PROGRAMMATION ORIENTEE OBJET\EXERCICES\TP\SPACEINVADOR2\TIRE.CPP
C:\USERS\NARIB\DESKTOP\COURS PROGRAMMATION\PROGRAMMATION ORIENTEE OBJET\EXERCICES\TP\SPACEINVADOR2\DEBUG\VC141.PDB
C:\USERS\NARIB\DESKTOP\COURS PROGRAMMATION\PROGRAMMATION ORIENTEE OBJET\EXERCICES\TP\SPACEINVADOR2\DEBUG\VC141.IDB
C:\USERS\NARIB\DESKTOP\COURS PROGRAMMATION\PROGRAMMATION ORIENTEE OBJET\EXERCICES\TP\SPACEINVADOR2\DEBUG\MAIN.OBJ
C:\USERS\NARIB\DESKTOP\COURS PROGRAMMATION\PROGRAMMATION ORIENTEE OBJET\EXERCICES\TP\SPACEINVADOR2\DEBUG\TIRE.OBJ
^C:\USERS\NARIB\DESKTOP\COURS PROGRAMMATION\PROGRAMMATION ORIENTEE OBJET\EXERCICES\TP\SPACEINVADOR2\ALIEN.CPP|C:\USERS\NARIB\DESKTOP\COURS PROGRAMMATION\PROGRAMMATION ORIENTEE OBJET\EXERCICES\TP\SPACEINVADOR2\MAIN.CPP|C:\USERS\NARIB\DESKTOP\COURS PROGRAMMATION\PROGRAMMATION ORIENTEE OBJET\EXERCICES\TP\SPACEINVADOR2\PLAYER.CPP|C:\USERS\NARIB\DESKTOP\COURS PROGRAMMATION\PROGRAMMATION ORIENTEE OBJET\EXERCICES\TP\SPACEINVADOR2\TIRE.CPP
C:\USERS\NARIB\DESKTOP\COURS PROGRAMMATION\PROGRAMMATION ORIENTEE OBJET\EXERCICES\TP\SPACEINVADOR2\DEBUG\VC141.PDB
C:\USERS\NARIB\DESKTOP\COURS PROGRAMMATION\PROGRAMMATION ORIENTEE OBJET\EXERCICES\TP\SPACEINVADOR2\DEBUG\VC141.IDB
C:\USERS\NARIB\DESKTOP\COURS PROGRAMMATION\PROGRAMMATION ORIENTEE OBJET\EXERCICES\TP\SPACEINVADOR2\DEBUG\TIRE.OBJ
C:\USERS\NARIB\DESKTOP\COURS PROGRAMMATION\PROGRAMMATION ORIENTEE OBJET\EXERCICES\TP\SPACEINVADOR2\DEBUG\PLAYER.OBJ
C:\USERS\NARIB\DESKTOP\COURS PROGRAMMATION\PROGRAMMATION ORIENTEE OBJET\EXERCICES\TP\SPACEINVADOR2\DEBUG\ALIEN.OBJ
^C:\USERS\NARIB\DESKTOP\COURS PROGRAMMATION\PROGRAMMATION ORIENTEE OBJET\EXERCICES\TP\SPACEINVADOR2\ALIEN.CPP|C:\USERS\NARIB\DESKTOP\COURS PROGRAMMATION\PROGRAMMATION ORIENTEE OBJET\EXERCICES\TP\SPACEINVADOR2\MAIN.CPP|C:\USERS\NARIB\DESKTOP\COURS PROGRAMMATION\PROGRAMMATION ORIENTEE OBJET\EXERCICES\TP\SPACEINVADOR2\MENU.CPP|C:\USERS\NARIB\DESKTOP\COURS PROGRAMMATION\PROGRAMMATION ORIENTEE OBJET\EXERCICES\TP\SPACEINVADOR2\PLAYER.CPP|C:\USERS\NARIB\DESKTOP\COURS PROGRAMMATION\PROGRAMMATION ORIENTEE OBJET\EXERCICES\TP\SPACEINVADOR2\TIRE.CPP|C:\USERS\NARIB\DESKTOP\COURS PROGRAMMATION\PROGRAMMATION ORIENTEE OBJET\EXERCICES\TP\SPACEINVADOR2\VAISSEAU.CPP
C:\USERS\NARIB\DESKTOP\COURS PROGRAMMATION\PROGRAMMATION ORIENTEE OBJET\EXERCICES\TP\SPACEINVADOR2\DEBUG\VC141.PDB
C:\USERS\NARIB\DESKTOP\COURS PROGRAMMATION\PROGRAMMATION ORIENTEE OBJET\EXERCICES\TP\SPACEINVADOR2\DEBUG\VC141.IDB
C:\USERS\NARIB\DESKTOP\COURS PROGRAMMATION\PROGRAMMATION ORIENTEE OBJET\EXERCICES\TP\SPACEINVADOR2\DEBUG\MAIN.OBJ
C:\USERS\NARIB\DESKTOP\COURS PROGRAMMATION\PROGRAMMATION ORIENTEE OBJET\EXERCICES\TP\SPACEINVADOR2\DEBUG\VAISSEAU.OBJ
C:\USERS\NARIB\DESKTOP\COURS PROGRAMMATION\PROGRAMMATION ORIENTEE OBJET\EXERCICES\TP\SPACEINVADOR2\DEBUG\TIRE.OBJ
C:\USERS\NARIB\DESKTOP\COURS PROGRAMMATION\PROGRAMMATION ORIENTEE OBJET\EXERCICES\TP\SPACEINVADOR2\DEBUG\PLAYER.OBJ
C:\USERS\NARIB\DESKTOP\COURS PROGRAMMATION\PROGRAMMATION ORIENTEE OBJET\EXERCICES\TP\SPACEINVADOR2\DEBUG\MENU.OBJ
C:\USERS\NARIB\DESKTOP\COURS PROGRAMMATION\PROGRAMMATION ORIENTEE OBJET\EXERCICES\TP\SPACEINVADOR2\DEBUG\ALIEN.OBJ
^C:\USERS\NARIB\DESKTOP\COURS PROGRAMMATION\PROGRAMMATION ORIENTEE OBJET\EXERCICES\TP\SPACEINVADOR2\MAIN.CPP|C:\USERS\NARIB\DESKTOP\COURS PROGRAMMATION\PROGRAMMATION ORIENTEE OBJET\EXERCICES\TP\SPACEINVADOR2\MENU.CPP|C:\USERS\NARIB\DESKTOP\COURS PROGRAMMATION\PROGRAMMATION ORIENTEE OBJET\EXERCICES\TP\SPACEINVADOR2\PLAYER.CPP|C:\USERS\NARIB\DESKTOP\COURS PROGRAMMATION\PROGRAMMATION ORIENTEE OBJET\EXERCICES\TP\SPACEINVADOR2\VAISSEAU.CPP
C:\USERS\NARIB\DESKTOP\COURS PROGRAMMATION\PROGRAMMATION ORIENTEE OBJET\EXERCICES\TP\SPACEINVADOR2\DEBUG\VC141.PDB
C:\USERS\NARIB\DESKTOP\COURS PROGRAMMATION\PROGRAMMATION ORIENTEE OBJET\EXERCICES\TP\SPACEINVADOR2\DEBUG\VC141.IDB
C:\USERS\NARIB\DESKTOP\COURS PROGRAMMATION\PROGRAMMATION ORIENTEE OBJET\EXERCICES\TP\SPACEINVADOR2\DEBUG\MAIN.OBJ
C:\USERS\NARIB\DESKTOP\COURS PROGRAMMATION\PROGRAMMATION ORIENTEE OBJET\EXERCICES\TP\SPACEINVADOR2\DEBUG\VAISSEAU.OBJ
C:\USERS\NARIB\DESKTOP\COURS PROGRAMMATION\PROGRAMMATION ORIENTEE OBJET\EXERCICES\TP\SPACEINVADOR2\DEBUG\PLAYER.OBJ
C:\USERS\NARIB\DESKTOP\COURS PROGRAMMATION\PROGRAMMATION ORIENTEE OBJET\EXERCICES\TP\SPACEINVADOR2\DEBUG\MENU.OBJ
^C:\USERS\NARIB\DESKTOP\COURS PROGRAMMATION\PROGRAMMATION ORIENTEE OBJET\EXERCICES\TP\SPACEINVADOR2\VAISSEAU.CPP
C:\USERS\NARIB\DESKTOP\COURS PROGRAMMATION\PROGRAMMATION ORIENTEE OBJET\EXERCICES\TP\SPACEINVADOR2\DEBUG\VC141.PDB
^C:\USERS\NARIB\DESKTOP\COURS PROGRAMMATION\PROGRAMMATION ORIENTEE OBJET\EXERCICES\TP\SPACEINVADOR2\MENU.CPP|C:\USERS\NARIB\DESKTOP\COURS PROGRAMMATION\PROGRAMMATION ORIENTEE OBJET\EXERCICES\TP\SPACEINVADOR2\TIRE.CPP
C:\USERS\NARIB\DESKTOP\COURS PROGRAMMATION\PROGRAMMATION ORIENTEE OBJET\EXERCICES\TP\SPACEINVADOR2\DEBUG\VC141.PDB
C:\USERS\NARIB\DESKTOP\COURS PROGRAMMATION\PROGRAMMATION ORIENTEE OBJET\EXERCICES\TP\SPACEINVADOR2\DEBUG\VC141.IDB
C:\USERS\NARIB\DESKTOP\COURS PROGRAMMATION\PROGRAMMATION ORIENTEE OBJET\EXERCICES\TP\SPACEINVADOR2\DEBUG\TIRE.OBJ
C:\USERS\NARIB\DESKTOP\COURS PROGRAMMATION\PROGRAMMATION ORIENTEE OBJET\EXERCICES\TP\SPACEINVADOR2\DEBUG\MENU.OBJ
^C:\USERS\NARIB\DESKTOP\COURS PROGRAMMATION\PROGRAMMATION ORIENTEE OBJET\EXERCICES\TP\SPACEINVADOR2\TIRE.CPP
C:\USERS\NARIB\DESKTOP\COURS PROGRAMMATION\PROGRAMMATION ORIENTEE OBJET\EXERCICES\TP\SPACEINVADOR2\DEBUG\VC141.PDB
^C:\USERS\NARIB\DESKTOP\COURS PROGRAMMATION\PROGRAMMATION ORIENTEE OBJET\EXERCICES\TP\SPACEINVADOR2\ALIEN.CPP|C:\USERS\NARIB\DESKTOP\COURS PROGRAMMATION\PROGRAMMATION ORIENTEE OBJET\EXERCICES\TP\SPACEINVADOR2\MAIN.CPP|C:\USERS\NARIB\DESKTOP\COURS PROGRAMMATION\PROGRAMMATION ORIENTEE OBJET\EXERCICES\TP\SPACEINVADOR2\MENU.CPP|C:\USERS\NARIB\DESKTOP\COURS PROGRAMMATION\PROGRAMMATION ORIENTEE OBJET\EXERCICES\TP\SPACEINVADOR2\PLAYER.CPP
C:\USERS\NARIB\DESKTOP\COURS PROGRAMMATION\PROGRAMMATION ORIENTEE OBJET\EXERCICES\TP\SPACEINVADOR2\DEBUG\VC141.PDB
C:\USERS\NARIB\DESKTOP\COURS PROGRAMMATION\PROGRAMMATION ORIENTEE OBJET\EXERCICES\TP\SPACEINVADOR2\DEBUG\VC141.IDB
C:\USERS\NARIB\DESKTOP\COURS PROGRAMMATION\PROGRAMMATION ORIENTEE OBJET\EXERCICES\TP\SPACEINVADOR2\DEBUG\MAIN.OBJ
C:\USERS\NARIB\DESKTOP\COURS PROGRAMMATION\PROGRAMMATION ORIENTEE OBJET\EXERCICES\TP\SPACEINVADOR2\DEBUG\PLAYER.OBJ
C:\USERS\NARIB\DESKTOP\COURS PROGRAMMATION\PROGRAMMATION ORIENTEE OBJET\EXERCICES\TP\SPACEINVADOR2\DEBUG\MENU.OBJ
C:\USERS\NARIB\DESKTOP\COURS PROGRAMMATION\PROGRAMMATION ORIENTEE OBJET\EXERCICES\TP\SPACEINVADOR2\DEBUG\ALIEN.OBJ
^C:\USERS\NARIB\DESKTOP\COURS PROGRAMMATION\PROGRAMMATION ORIENTEE OBJET\EXERCICES\TP\SPACEINVADOR2\MAIN.CPP|C:\USERS\NARIB\DESKTOP\COURS PROGRAMMATION\PROGRAMMATION ORIENTEE OBJET\EXERCICES\TP\SPACEINVADOR2\MENU.CPP
C:\USERS\NARIB\DESKTOP\COURS PROGRAMMATION\PROGRAMMATION ORIENTEE OBJET\EXERCICES\TP\SPACEINVADOR2\DEBUG\VC141.PDB
C:\USERS\NARIB\DESKTOP\COURS PROGRAMMATION\PROGRAMMATION ORIENTEE OBJET\EXERCICES\TP\SPACEINVADOR2\DEBUG\VC141.IDB
C:\USERS\NARIB\DESKTOP\COURS PROGRAMMATION\PROGRAMMATION ORIENTEE OBJET\EXERCICES\TP\SPACEINVADOR2\DEBUG\MAIN.OBJ
C:\USERS\NARIB\DESKTOP\COURS PROGRAMMATION\PROGRAMMATION ORIENTEE OBJET\EXERCICES\TP\SPACEINVADOR2\DEBUG\MENU.OBJ
^C:\USERS\NARIB\DESKTOP\COURS PROGRAMMATION\PROGRAMMATION ORIENTEE OBJET\EXERCICES\TP\SPACEINVADOR2\ALIEN.CPP|C:\USERS\NARIB\DESKTOP\COURS PROGRAMMATION\PROGRAMMATION ORIENTEE OBJET\EXERCICES\TP\SPACEINVADOR2\MENU.CPP
C:\USERS\NARIB\DESKTOP\COURS PROGRAMMATION\PROGRAMMATION ORIENTEE OBJET\EXERCICES\TP\SPACEINVADOR2\DEBUG\VC141.PDB
C:\USERS\NARIB\DESKTOP\COURS PROGRAMMATION\PROGRAMMATION ORIENTEE OBJET\EXERCICES\TP\SPACEINVADOR2\DEBUG\VC141.IDB
C:\USERS\NARIB\DESKTOP\COURS PROGRAMMATION\PROGRAMMATION ORIENTEE OBJET\EXERCICES\TP\SPACEINVADOR2\DEBUG\MENU.OBJ
C:\USERS\NARIB\DESKTOP\COURS PROGRAMMATION\PROGRAMMATION ORIENTEE OBJET\EXERCICES\TP\SPACEINVADOR2\DEBUG\ALIEN.OBJ
^C:\USERS\NARIB\DESKTOP\COURS PROGRAMMATION\PROGRAMMATION ORIENTEE OBJET\EXERCICES\TP\SPACEINVADOR2\ALIEN.CPP
C:\USERS\NARIB\DESKTOP\COURS PROGRAMMATION\PROGRAMMATION ORIENTEE OBJET\EXERCICES\TP\SPACEINVADOR2\DEBUG\VC141.PDB
C:\USERS\NARIB\DESKTOP\COURS PROGRAMMATION\PROGRAMMATION ORIENTEE OBJET\EXERCICES\TP\SPACEINVADOR2\DEBUG\VC141.IDB
C:\USERS\NARIB\DESKTOP\COURS PROGRAMMATION\PROGRAMMATION ORIENTEE OBJET\EXERCICES\TP\SPACEINVADOR2\DEBUG\ALIEN.OBJ
^C:\USERS\NARIB\DESKTOP\COURS PROGRAMMATION\PROGRAMMATION ORIENTEE OBJET\EXERCICES\TP\SPACEINVADOR2\MENU.CPP|C:\USERS\NARIB\DESKTOP\COURS PROGRAMMATION\PROGRAMMATION ORIENTEE OBJET\EXERCICES\TP\SPACEINVADOR2\PLAYER.CPP
C:\USERS\NARIB\DESKTOP\COURS PROGRAMMATION\PROGRAMMATION ORIENTEE OBJET\EXERCICES\TP\SPACEINVADOR2\DEBUG\VC141.PDB
C:\USERS\NARIB\DESKTOP\COURS PROGRAMMATION\PROGRAMMATION ORIENTEE OBJET\EXERCICES\TP\SPACEINVADOR2\DEBUG\VC141.IDB
C:\USERS\NARIB\DESKTOP\COURS PROGRAMMATION\PROGRAMMATION ORIENTEE OBJET\EXERCICES\TP\SPACEINVADOR2\DEBUG\PLAYER.OBJ
C:\USERS\NARIB\DESKTOP\COURS PROGRAMMATION\PROGRAMMATION ORIENTEE OBJET\EXERCICES\TP\SPACEINVADOR2\DEBUG\MENU.OBJ
^C:\USERS\NARIB\DESKTOP\COURS PROGRAMMATION\PROGRAMMATION ORIENTEE OBJET\EXERCICES\TP\SPACEINVADOR2\MENU.CPP
C:\USERS\NARIB\DESKTOP\COURS PROGRAMMATION\PROGRAMMATION ORIENTEE OBJET\EXERCICES\TP\SPACEINVADOR2\DEBUG\VC141.PDB
^C:\USERS\NARIB\DESKTOP\COURS PROGRAMMATION\PROGRAMMATION ORIENTEE OBJET\EXERCICES\TP\SPACEINVADOR2\MAIN.CPP|C:\USERS\NARIB\DESKTOP\COURS PROGRAMMATION\PROGRAMMATION ORIENTEE OBJET\EXERCICES\TP\SPACEINVADOR2\PLAYER.CPP
C:\USERS\NARIB\DESKTOP\COURS PROGRAMMATION\PROGRAMMATION ORIENTEE OBJET\EXERCICES\TP\SPACEINVADOR2\DEBUG\VC141.PDB
C:\USERS\NARIB\DESKTOP\COURS PROGRAMMATION\PROGRAMMATION ORIENTEE OBJET\EXERCICES\TP\SPACEINVADOR2\DEBUG\VC141.IDB
C:\USERS\NARIB\DESKTOP\COURS PROGRAMMATION\PROGRAMMATION ORIENTEE OBJET\EXERCICES\TP\SPACEINVADOR2\DEBUG\MAIN.OBJ
C:\USERS\NARIB\DESKTOP\COURS PROGRAMMATION\PROGRAMMATION ORIENTEE OBJET\EXERCICES\TP\SPACEINVADOR2\DEBUG\PLAYER.OBJ
^C:\USERS\NARIB\DESKTOP\COURS PROGRAMMATION\PROGRAMMATION ORIENTEE OBJET\EXERCICES\TP\SPACEINVADOR2\PLAYER.CPP
C:\USERS\NARIB\DESKTOP\COURS PROGRAMMATION\PROGRAMMATION ORIENTEE OBJET\EXERCICES\TP\SPACEINVADOR2\DEBUG\VC141.PDB
^C:\USERS\NARIB\DESKTOP\COURS PROGRAMMATION\PROGRAMMATION ORIENTEE OBJET\EXERCICES\TP\SPACEINVADOR2\MAIN.CPP
C:\USERS\NARIB\DESKTOP\COURS PROGRAMMATION\PROGRAMMATION ORIENTEE OBJET\EXERCICES\TP\SPACEINVADOR2\DEBUG\VC141.PDB
